<svg width="558" height="375" viewBox="0 0 558 375" fill="none" xmlns="http://www.w3.org/2000/svg">
  <mask id="mask0" mask-type="alpha" maskUnits="userSpaceOnUse" x="0" y="0" width="558" height="375">
    <path fill-rule="evenodd" clip-rule="evenodd" d="M0.000488281 0.80835H557.278V374.949H0.000488281V0.80835Z" fill="white"/>
  </mask>
  <g mask="url(#mask0)">
    <path fill-rule="evenodd" clip-rule="evenodd" d="M482.024 357.638C562.906 313.025 584.807 161.84 516.972 59.3967C449.137 -43.0453 302.546 37.0907 230.903 12.3067C-25.8856 -76.5273 -86.8146 379.185 141.697 358.463C290.753 344.947 401.14 402.249 482.024 357.638Z" fill="url(#paint0_linear)"/>
  </g>
  <mask id="mask1" mask-type="alpha" maskUnits="userSpaceOnUse" x="0" y="0" width="558" height="375">
    <path fill-rule="evenodd" clip-rule="evenodd" d="M0 375H557.278V0.807983H0V375Z" fill="white"/>
  </mask>
  <g mask="url(#mask1)">
  </g>
  <path fill-rule="evenodd" clip-rule="evenodd" d="M367.866 230.455C367.866 230.455 353.127 235.682 332.428 236.077C332.485 236.157 332.543 236.237 332.6 236.317C348.504 258.417 347.471 277.832 347.471 277.832C347.471 277.832 343.378 289.67 337.215 299.419L309.128 294.637C310.573 292.967 312.531 290.326 314.116 286.815C317.008 280.413 323.617 276.695 323.617 276.695C323.617 276.695 306.991 250.981 301.827 232.6C301.827 232.6 299.208 263.808 300.904 293.236L298.537 292.834L291.825 314.933H360.086L361.051 309.298C361.051 309.298 370.137 262.261 367.866 230.455Z" fill="#323447"/>
  <path fill-rule="evenodd" clip-rule="evenodd" d="M141.69 358.513C290.747 344.997 401.133 402.299 482.016 357.687C499.643 347.964 514.46 333.171 526.164 314.932H32.77C56.047 344.974 92.012 363.018 141.69 358.513Z" fill="#1A1B22"/>
  <path fill-rule="evenodd" clip-rule="evenodd" d="M515.961 328.977C519.587 324.57 522.99 319.878 526.164 314.932H32.7705C36.6725 319.968 40.9325 324.665 45.5525 328.977H515.961Z" fill="#464855"/>
  <path fill-rule="evenodd" clip-rule="evenodd" d="M517.79 326.706C519.581 324.435 521.314 322.093 522.99 319.684H36.6445C38.7345 322.116 40.9145 324.459 43.1875 326.706H517.79Z" fill="#464855"/>
  <path fill-rule="evenodd" clip-rule="evenodd" d="M262.843 114.823C262.843 114.823 270.691 104.703 254.994 100.779C254.994 100.779 265.528 104.445 261.603 112.603C261.603 112.603 258.66 94.0146 222.309 104.961C222.309 104.961 203.618 114.978 212.499 138.214C212.499 138.214 208.161 138.317 208.265 142.345C208.368 146.372 213.325 159.694 219.005 159.281C219.005 159.281 223.962 179.521 242.55 179.521C261.138 179.521 265.579 155.563 265.579 155.563C265.579 155.563 267.438 155.77 269.193 154.22C270.949 152.672 280.553 140.382 271.156 136.974C271.156 136.974 270.329 136.768 268.47 138.11C268.47 138.11 274.564 120.245 266.612 116.941C266.612 116.941 269.607 115.495 271.466 117.25C271.466 117.25 270.226 113.016 262.843 114.823Z" fill="#808080"/>
  <mask id="mask2" mask-type="alpha" maskUnits="userSpaceOnUse" x="265" y="140" width="11" height="16">
    <path fill-rule="evenodd" clip-rule="evenodd" d="M268.056 146.648C268.056 146.648 270.534 151.864 265.836 152.741L265.579 155.563C265.579 155.563 267.438 155.769 269.194 154.22C270.565 153.01 276.73 145.241 274.875 140.276C274.525 140.195 274.149 140.144 273.759 140.144C271.799 140.144 269.469 141.434 268.056 146.648Z" fill="white"/>
  </mask>
  <g mask="url(#mask2)">
    <path fill-rule="evenodd" clip-rule="evenodd" d="M268.056 146.648C268.056 146.648 270.534 151.864 265.836 152.741L265.579 155.563C265.579 155.563 267.438 155.769 269.194 154.22C270.565 153.01 276.73 145.241 274.875 140.276C274.525 140.195 274.149 140.144 273.759 140.144C271.799 140.144 269.469 141.434 268.056 146.648Z" fill="url(#paint1_linear)"/>
  </g>
  <path fill-rule="evenodd" clip-rule="evenodd" d="M227.163 182.722C227.163 182.722 226.896 195.988 240.748 198.048C241.814 198.206 242.963 198.299 244.202 198.314C245.565 198.329 246.819 198.245 247.973 198.076C261.52 196.089 261.344 182.411 261.344 182.411C259.74 181.838 259.28 175.734 259.188 170.412C255.653 175.306 250.346 179.52 242.55 179.52C236.201 179.52 231.442 177.159 227.928 174.05C228.142 177.999 228.08 181.805 227.163 182.722Z" fill="#F0ADC1"/>
  <path fill-rule="evenodd" clip-rule="evenodd" d="M240.749 198.049C226.896 195.988 227.164 182.723 227.164 182.723C227.437 182.448 227.635 181.916 227.772 181.198L220.761 184.409C220.684 185.008 220.618 185.597 220.563 186.177C218.674 206.076 229.435 214.837 229.435 214.837L240.749 198.049Z" fill="white"/>
  <path fill-rule="evenodd" clip-rule="evenodd" d="M261.345 182.412C261.345 182.412 261.521 196.09 247.974 198.076L255.769 215.044C267.392 207.185 270.581 191.544 271.404 185.392C271.489 184.761 271.548 184.228 271.589 183.815L260.382 181.143C260.645 181.823 260.962 182.275 261.345 182.412Z" fill="white"/>
  <mask id="mask3" mask-type="alpha" maskUnits="userSpaceOnUse" x="200" y="295" width="18" height="23">
    <path fill-rule="evenodd" clip-rule="evenodd" d="M201.811 313.768C207.128 315.685 211.686 316.9 215.493 317.674C213.414 312.115 214.366 304.276 217.275 298.609L206.614 295.802C197.704 299.467 200.443 309.917 201.811 313.768Z" fill="white"/>
  </mask>
  <g mask="url(#mask3)">
    <path fill-rule="evenodd" clip-rule="evenodd" d="M201.811 313.768C207.128 315.685 211.686 316.9 215.493 317.674C213.414 312.115 214.366 304.276 217.275 298.609L206.614 295.802C197.704 299.467 200.443 309.917 201.811 313.768Z" fill="url(#paint2_linear)"/>
  </g>
  <path fill-rule="evenodd" clip-rule="evenodd" d="M207.622 296.067L206.613 295.801C197.704 299.466 200.442 309.917 201.81 313.768C202.395 313.979 202.973 314.181 203.539 314.376C202.897 305.309 205.218 299.535 207.622 296.067Z" fill="#F0ADC1"/>
  <path fill-rule="evenodd" clip-rule="evenodd" d="M327.797 312.345C327.797 312.345 327.384 307.595 322.84 309.144C322.84 309.144 320.259 305.013 316.128 307.389C316.128 307.389 315.302 301.502 309.415 304.6C309.415 304.6 305.088 301.215 301.778 304.353C298.469 307.491 295.577 320.194 295.577 320.194C295.577 320.194 299.553 323.291 301.774 321.175L303.994 319.058C303.994 319.058 303.271 322.104 307.505 322.311C311.739 322.517 311.739 319.987 311.739 319.987C311.739 319.987 311.171 322.931 314.166 322.414C317.16 321.898 323.719 321.381 323.719 321.381C323.719 321.381 325.629 318.851 327.797 312.345Z" fill="#FFD4D4"/>
  <path fill-rule="evenodd" clip-rule="evenodd" d="M299.306 308.392C297.632 309.402 295.287 310.57 292.789 311.053C292.789 311.053 290.213 317.744 296.311 317.292C296.975 314.835 298.04 311.264 299.306 308.392Z" fill="#F0ADC1"/>
  <path fill-rule="evenodd" clip-rule="evenodd" d="M327.113 310.303L329.278 307.127C328.242 304.15 325.066 297.61 316.904 296.42C316.904 296.42 313.434 295.71 309.046 296.359L304.781 303.028C307.233 302.892 309.416 304.6 309.416 304.6C315.302 301.502 316.129 307.388 316.129 307.388C320.259 305.013 322.841 309.144 322.841 309.144C325.217 308.333 326.465 309.247 327.113 310.303Z" fill="#F0ADC1"/>
  <path fill-rule="evenodd" clip-rule="evenodd" d="M249.378 314.932L245.742 311.343C245.534 312.206 244.725 314.723 242.318 314.932H249.378ZM236.543 304.564L244.586 310.202L242.727 308.368C240.446 307.154 238.095 305.621 236.543 304.564ZM241.662 314.932C241.131 314.889 240.535 314.743 239.865 314.462C239.865 314.462 239.708 314.652 239.426 314.932H241.662ZM250.533 309.297C250.381 309.548 250.166 309.777 249.864 309.952L254.933 314.932H292.344C291.978 313.162 292.789 311.053 292.789 311.053C294.557 310.711 296.247 310.026 297.679 309.297C298.27 308.995 298.816 308.687 299.306 308.392C300.071 306.656 300.91 305.175 301.778 304.352C298.495 272.284 301.826 232.599 301.826 232.599C306.99 250.981 323.616 276.695 323.616 276.695C323.616 276.695 317.007 280.412 314.115 286.815C311.224 293.218 307.093 296.729 307.093 296.729C307.757 296.573 308.41 296.451 309.045 296.357C313.434 295.709 316.903 296.419 316.903 296.419C325.066 297.609 328.241 304.149 329.277 307.126C329.591 308.03 329.709 308.605 329.709 308.605C339.829 299.931 347.471 277.831 347.471 277.831C347.471 277.831 348.503 258.416 332.6 236.317C316.697 214.217 318.143 201.826 315.87 199.554C314.19 197.873 286.749 189.866 271.403 185.392C270.58 191.543 267.391 207.185 255.768 215.043L247.973 198.076C246.819 198.245 245.565 198.329 244.202 198.314C242.963 198.299 241.815 198.206 240.749 198.048L229.435 214.836C229.435 214.836 218.674 206.076 220.563 186.176C206.818 192.733 176.451 206.139 174.496 208.745C174.496 208.745 171.811 237.454 163.549 253.151C155.288 268.848 150.331 282.48 154.875 296.524C154.875 296.524 168.827 303.772 182.811 309.297C189.94 312.114 197.078 314.483 202.378 315.215C202.378 315.215 202.132 314.674 201.81 313.768C201.429 312.694 200.94 311.107 200.628 309.297C199.821 304.617 200.188 298.445 206.613 295.801L216.991 298.585L218.85 296.03L236.508 294.119C236.508 294.119 244.667 303.929 250.76 307.028C250.76 307.028 251.114 308.333 250.533 309.297ZM207.662 292.978C204.235 291.7 199.753 289.645 196.698 286.816C191.122 281.653 187.714 280.104 187.714 280.104C187.714 280.104 201.965 257.178 202.998 240.656C202.998 240.656 209.555 272.747 207.662 292.978Z" fill="white"/>
  <path fill-rule="evenodd" clip-rule="evenodd" d="M323.617 276.695C323.617 276.695 329.659 273.568 335.442 274.291C335.442 274.291 309.932 256.38 301.827 232.599C306.99 250.981 323.617 276.695 323.617 276.695Z" fill="#E0E3FF"/>
  <path fill-rule="evenodd" clip-rule="evenodd" d="M187.715 280.104C187.715 280.104 201.966 257.178 202.999 240.656C198.298 258.035 175.583 277.802 175.583 277.802C183.122 276.563 187.715 280.104 187.715 280.104Z" fill="#E0E3FF"/>
  <path fill-rule="evenodd" clip-rule="evenodd" d="M271.552 185.436C271.302 190.979 269.425 209.306 255.668 217.751L250.763 206.496L251.609 205.989L255.769 215.043C267.392 207.185 270.581 191.543 271.404 185.392L271.552 185.436Z" fill="#E0E3FF"/>
  <path fill-rule="evenodd" clip-rule="evenodd" d="M220.563 186.177C220.563 186.177 216.322 208.562 229.438 216.72L237.262 203.224L229.435 214.837C229.435 214.837 218.674 206.076 220.563 186.177Z" fill="#E0E3FF"/>
  <path fill-rule="evenodd" clip-rule="evenodd" d="M236.595 204.213C238.099 207.14 239.904 210.965 240.023 212.693C240.229 215.688 237.338 245.842 234.033 256.582C231.527 264.725 230.39 282.956 233.209 294.477L236.509 294.12C236.509 294.12 239.294 297.468 242.824 300.87C245.168 295.151 245.599 284.052 245.599 284.052L244.202 198.315L239.95 199.235L236.595 204.213Z" fill="#6B6F82"/>
  <path fill-rule="evenodd" clip-rule="evenodd" d="M241.051 211.709C241.051 211.709 241.361 238.559 237.643 257.147C235.058 270.075 236.268 286.297 237.245 294.98C239.384 297.438 245.765 304.488 250.76 307.028C250.76 307.028 250.903 307.556 250.859 308.187L265.939 296.182C265.939 296.182 259.123 280.485 258.09 254.875C257.057 229.264 252.307 211.192 252.307 211.192L241.051 211.709Z" fill="#464855"/>
  <path fill-rule="evenodd" clip-rule="evenodd" d="M241.051 211.709C241.051 211.709 241.068 213.175 241.046 215.657L252.698 212.799C252.453 211.748 252.307 211.192 252.307 211.192L241.051 211.709Z" fill="#6B6F82"/>
  <path fill-rule="evenodd" clip-rule="evenodd" d="M241.051 211.709L252.307 211.192C252.307 211.192 252.562 210.442 253.108 209.251L247.974 198.076C246.82 198.246 245.566 198.33 244.203 198.314C242.964 198.3 241.815 198.207 240.749 198.049L237.262 203.224C238.585 205.239 240.468 208.535 241.051 211.709Z" fill="#464855"/>
  <path fill-rule="evenodd" clip-rule="evenodd" d="M268.471 138.11C268.471 138.11 274.564 120.245 266.613 116.941C266.613 116.941 269.607 115.495 271.466 117.25C271.466 117.25 270.227 113.016 262.844 114.823C262.844 114.823 270.692 104.703 254.995 100.778C254.995 100.778 265.528 104.444 261.604 112.603C261.604 112.603 258.661 94.0147 222.31 104.961C222.31 104.961 203.618 114.978 212.499 138.214C218.336 139.072 219.365 146.235 219.365 146.235C228.969 124.859 255.819 134.36 255.819 134.36C258.194 139.627 263.048 140.04 263.048 140.04C265.733 142.002 266.352 145.719 266.352 145.719C266.662 141.278 268.471 138.11 268.471 138.11Z" fill="#323447"/>
  <path fill-rule="evenodd" clip-rule="evenodd" d="M268.471 138.11C268.471 138.11 274.497 120.439 266.737 116.998C266.752 117.131 267.805 126.641 256.346 135.384C258.843 139.681 263.048 140.04 263.048 140.04C265.733 142.002 266.352 145.719 266.352 145.719C266.662 141.278 268.471 138.11 268.471 138.11Z" fill="#1F2136"/>
  <path fill-rule="evenodd" clip-rule="evenodd" d="M211.211 118.889C209.65 123.871 209.462 130.269 212.499 138.214C218.336 139.073 219.364 146.236 219.364 146.236C221.192 142.166 223.647 139.219 226.42 137.109C223.83 131.089 219.12 123.176 211.211 118.889Z" fill="#1F2136"/>
  <mask id="mask4" mask-type="alpha" maskUnits="userSpaceOnUse" x="208" y="141" width="12" height="19">
    <path fill-rule="evenodd" clip-rule="evenodd" d="M208.316 141.482C208.275 141.747 208.256 142.035 208.265 142.345C208.368 146.372 213.325 159.694 219.005 159.281L218.332 155.065C215.699 154.652 216.473 150.883 216.473 150.883C216.473 150.883 217.196 146.648 213.271 142.931C212.075 141.797 210.704 141.403 209.377 141.403C209.019 141.403 208.664 141.432 208.316 141.482Z" fill="white"/>
  </mask>
  <g mask="url(#mask4)">
    <path fill-rule="evenodd" clip-rule="evenodd" d="M208.316 141.482C208.275 141.747 208.256 142.035 208.265 142.345C208.368 146.372 213.325 159.694 219.005 159.281L218.332 155.065C215.699 154.652 216.473 150.883 216.473 150.883C216.473 150.883 217.196 146.648 213.271 142.931C212.075 141.797 210.704 141.403 209.377 141.403C209.019 141.403 208.664 141.432 208.316 141.482Z" fill="url(#paint3_linear)"/>
  </g>
  <path fill-rule="evenodd" clip-rule="evenodd" d="M216.473 150.883C216.473 150.883 215.698 154.652 218.332 155.066L219.005 159.281C219.005 159.281 221.154 168.056 227.928 174.05C231.442 177.16 236.201 179.521 242.55 179.521C250.347 179.521 255.654 175.307 259.189 170.413C264.082 163.639 265.579 155.563 265.579 155.563L265.835 152.742C270.534 151.864 268.056 146.649 268.056 146.649C269.749 140.398 272.762 139.786 274.875 140.277C274.356 138.888 273.21 137.719 271.156 136.974C271.156 136.974 270.33 136.768 268.471 138.11C268.471 138.11 266.661 141.279 266.351 145.719C266.351 145.719 265.732 142.002 263.047 140.04C263.047 140.04 258.194 139.627 255.819 134.36C255.819 134.36 228.969 124.859 219.365 146.236C219.365 146.236 218.336 139.072 212.499 138.214C212.499 138.214 208.804 138.302 208.316 141.483C209.951 141.244 211.751 141.49 213.272 142.931C217.196 146.649 216.473 150.883 216.473 150.883Z" fill="#FFD4D4"/>
  <path fill-rule="evenodd" clip-rule="evenodd" d="M250.784 177.71C254.323 176.026 257.073 173.341 259.188 170.413C264.082 163.638 265.578 155.563 265.578 155.563L265.835 152.741C270.534 151.864 268.055 146.648 268.055 146.648C269.749 140.397 272.761 139.786 274.874 140.276C274.355 138.888 273.209 137.718 271.156 136.974C271.156 136.974 270.329 136.767 268.47 138.109C268.47 138.109 266.661 141.278 266.351 145.718C266.351 145.718 266.331 145.597 266.282 145.388L250.784 177.71ZM216.472 150.882C216.472 150.882 215.698 154.651 218.331 155.065L219.005 159.28C219.005 159.28 221.153 168.055 227.928 174.05C230.482 176.31 233.694 178.175 237.697 179.025L219.364 146.235C219.364 146.235 218.335 139.072 212.498 138.213C212.498 138.213 208.804 138.301 208.315 141.482C209.95 141.244 211.75 141.49 213.271 142.931C217.196 146.648 216.472 150.882 216.472 150.882Z" fill="#F0ADC1"/>
  <path fill-rule="evenodd" clip-rule="evenodd" d="M266.283 145.388C266.061 144.435 265.248 141.648 263.048 140.039C263.048 140.039 258.194 139.626 255.819 134.359C255.819 134.359 228.969 124.859 219.365 146.235C232.736 128.549 254.247 135.497 254.247 135.497C255.383 139.654 262.096 141.254 262.096 141.254C265.22 142.21 266.352 145.719 266.352 145.719L266.283 145.388Z" fill="#F0ADC1"/>
  <path fill-rule="evenodd" clip-rule="evenodd" d="M300.688 17.0975C300.688 17.0975 297.59 7.18353 305.542 3.05353C305.542 3.05353 300.275 9.76553 303.27 15.5485C303.27 15.5485 296.351 -6.86047 348.088 6.46153C348.088 6.46153 354.594 4.60253 354.698 13.0705C354.801 21.5385 350.463 31.0395 350.463 31.0395C350.463 31.0395 354.801 32.3825 353.975 37.0295C353.149 41.6765 351.186 51.1775 349.328 51.8995C349.328 51.8995 344.268 78.9565 341.584 78.9565C338.898 78.9565 328.055 80.0925 326.505 78.9565C324.957 77.8215 312.358 71.8315 308.434 60.4715C308.434 60.4715 300.895 63.0535 298.003 55.3085C295.112 47.5635 294.906 41.0575 300.999 40.3345C300.999 40.3345 292.991 28.3195 298.21 19.2165C298.21 19.2165 296.403 17.1505 292.066 19.3705C292.066 19.3705 294.751 14.4135 300.688 17.0975Z" fill="#999999"/>
  <mask id="mask5" mask-type="alpha" maskUnits="userSpaceOnUse" x="296" y="42" width="13" height="19">
    <path fill-rule="evenodd" clip-rule="evenodd" d="M298.003 55.308C300.895 63.054 308.434 60.472 308.434 60.472L307.449 56.786C301.356 56.116 304.557 50.023 304.557 50.023C303.107 44.66 299.52 42.888 297.205 42.304C295.25 44.926 295.949 49.804 298.003 55.308Z" fill="white"/>
  </mask>
  <g mask="url(#mask5)">
    <path fill-rule="evenodd" clip-rule="evenodd" d="M298.003 55.308C300.895 63.054 308.434 60.472 308.434 60.472L307.449 56.786C301.356 56.116 304.557 50.023 304.557 50.023C303.107 44.66 299.52 42.888 297.205 42.304C295.25 44.926 295.949 49.804 298.003 55.308Z" fill="url(#paint4_linear)"/>
  </g>
  <mask id="mask6" mask-type="alpha" maskUnits="userSpaceOnUse" x="272" y="104" width="108" height="81">
    <path fill-rule="evenodd" clip-rule="evenodd" d="M274.511 112.107C274.511 112.107 266.869 135.653 281.12 149.905C281.12 149.905 304.457 188.218 321.393 183.053C321.393 183.053 333.786 187.598 342.666 177.271C349.065 169.831 364.786 151.354 373.08 141.601L379.634 134.755C378.292 131.193 374.565 126.752 374.565 126.752C372.293 123.795 368.756 121.15 363.321 120.886C363.321 120.886 339.156 151.971 322.426 160.439C322.426 160.439 317.263 148.15 309.001 142.78C301.192 137.704 296.471 109.758 281.842 104.447C278.476 106.906 275.762 109.442 274.511 112.107Z" fill="white"/>
  </mask>
  <g mask="url(#mask6)">
    <path fill-rule="evenodd" clip-rule="evenodd" d="M274.511 112.107C274.511 112.107 266.869 135.653 281.12 149.905C281.12 149.905 304.457 188.218 321.393 183.053C321.393 183.053 333.786 187.598 342.666 177.271C349.065 169.831 364.786 151.354 373.08 141.601L379.634 134.755C378.292 131.193 374.565 126.752 374.565 126.752C372.293 123.795 368.756 121.15 363.321 120.886C363.321 120.886 339.156 151.971 322.426 160.439C322.426 160.439 317.263 148.15 309.001 142.78C301.192 137.704 296.471 109.758 281.842 104.447C278.476 106.906 275.762 109.442 274.511 112.107Z" fill="url(#paint5_linear)"/>
  </g>
  <path fill-rule="evenodd" clip-rule="evenodd" d="M322.426 160.439C322.426 160.439 317.263 148.15 309.001 142.78C304.273 139.707 300.675 128.248 295.326 118.506C295.451 126.907 291.415 135.194 300.762 144.627C310.109 154.06 315.038 164.223 315.038 164.223L322.426 160.439Z" fill="#E0E3FF"/>
  <mask id="mask7" mask-type="alpha" maskUnits="userSpaceOnUse" x="386" y="72" width="54" height="73">
    <path fill-rule="evenodd" clip-rule="evenodd" d="M386.4 77.026C391.15 104.599 388.465 144.771 388.465 144.771C405.348 137.984 432.457 141.466 432.457 141.466C442.785 118.333 437.827 73.721 437.827 73.721C433.068 72.823 427.948 72.472 422.848 72.472C404.49 72.472 386.4 77.026 386.4 77.026Z" fill="white"/>
  </mask>
  <g mask="url(#mask7)">
    <path fill-rule="evenodd" clip-rule="evenodd" d="M386.4 77.026C391.15 104.599 388.465 144.771 388.465 144.771C405.348 137.984 432.457 141.466 432.457 141.466C442.785 118.333 437.827 73.721 437.827 73.721C433.068 72.823 427.948 72.472 422.848 72.472C404.49 72.472 386.4 77.026 386.4 77.026Z" fill="url(#paint6_linear)"/>
  </g>
  <path fill-rule="evenodd" clip-rule="evenodd" d="M388.651 144.699C388.589 144.723 388.527 144.746 388.465 144.771C388.465 144.771 389.692 126.408 389.019 105.992C392.146 105.987 398.266 105.721 403.646 103.978C403.646 103.978 406.567 104.896 405.247 109.142C405.247 109.142 408.116 111.609 407.777 113.686C407.511 115.312 394.353 135.854 388.651 144.699Z" fill="#E0E3FF"/>
  <path fill-rule="evenodd" clip-rule="evenodd" d="M366.267 121.292C369.86 117.225 376.835 109.393 377.674 108.935C378.81 108.315 395.023 108.729 403.646 103.978C403.646 103.978 406.228 105.682 404.885 108.006C403.542 110.329 395.643 112.343 395.643 112.343C395.643 112.343 402.201 111.414 405.246 109.142C405.246 109.142 408.293 111.672 407.777 113.686C407.261 115.7 402.82 116.577 402.82 116.577C402.82 116.577 404.937 119.572 399.619 120.295C399.619 120.295 401.684 122.67 399.413 123.496C397.14 124.322 388.363 124.116 388.363 124.116L378.941 133.21C377.315 130.028 374.565 126.752 374.565 126.752C372.733 124.367 370.078 122.186 366.267 121.292Z" fill="#FFD4D4"/>
  <path fill-rule="evenodd" clip-rule="evenodd" d="M366.267 121.292C366.741 120.756 367.274 120.154 367.842 119.513C375.86 120.355 380.706 125.771 383.034 129.259L378.941 133.21C377.315 130.028 374.565 126.752 374.565 126.752C372.733 124.367 370.078 122.186 366.267 121.292Z" fill="#F0ADC1"/>
  <path fill-rule="evenodd" clip-rule="evenodd" d="M389.077 107.866C388.989 104.681 388.856 101.433 388.668 98.1855C384.037 104.664 377.675 108.935 377.675 108.935C378.286 108.602 383.265 108.567 389.077 107.866Z" fill="#F0ADC1"/>
  <path fill-rule="evenodd" clip-rule="evenodd" d="M333.477 104.26C333.477 104.26 338.696 101.113 339.597 84.8206C339.08 84.6056 338.737 84.4356 338.603 84.3186L338.523 79.1036C334.272 79.3686 327.687 79.8226 326.505 78.9566C324.956 77.8216 312.358 71.8316 308.434 60.4716C308.434 60.4716 308.256 60.5326 307.945 60.6076C309.123 67.3846 310.76 80.8586 306.524 86.9096C306.426 87.0506 306.323 87.1906 306.215 87.3306C309.825 91.7236 318.742 100.73 333.477 104.26Z" fill="#F0ADC1"/>
  <path fill-rule="evenodd" clip-rule="evenodd" d="M333.477 104.26C333.477 104.26 338.696 101.113 339.597 84.8206C339.08 84.6056 338.737 84.4356 338.603 84.3186C338.603 84.3186 325.203 91.2536 307.898 84.1866C307.531 85.1996 307.079 86.1186 306.524 86.9096C306.426 87.0506 306.323 87.1906 306.215 87.3306C309.825 91.7236 318.742 100.73 333.477 104.26Z" fill="#FFD4D4"/>
  <path fill-rule="evenodd" clip-rule="evenodd" d="M333.477 104.26C333.477 104.26 338.696 101.113 339.597 84.8206C339.08 84.6056 338.737 84.4356 338.603 84.3186C338.603 84.3186 337.725 97.0446 331.112 103.632C331.883 103.856 332.67 104.067 333.477 104.26Z" fill="#F0ADC1"/>
  <path fill-rule="evenodd" clip-rule="evenodd" d="M333.477 104.26C318.742 100.73 309.825 91.7237 306.215 87.3307C304.782 89.1997 302.55 91.0427 299.911 92.8817C305.38 113.637 325.112 116.859 325.112 116.859C326.351 110.146 330.998 105.086 330.998 105.086L334.716 105.189L345.766 115C351.512 104.785 349.487 92.7187 348.27 87.7637C344.407 86.5497 341.183 85.4787 339.597 84.8217C338.696 101.113 333.477 104.26 333.477 104.26Z" fill="white"/>
  <mask id="mask8" mask-type="alpha" maskUnits="userSpaceOnUse" x="281" y="87" width="95" height="150">
    <path fill-rule="evenodd" clip-rule="evenodd" d="M345.766 115L334.716 105.189L330.998 105.086C330.998 105.086 326.351 110.146 325.111 116.858C325.111 116.858 305.38 113.637 299.911 92.8819C294.468 96.6759 287.297 100.46 281.841 104.447C296.471 109.757 301.192 137.704 309.001 142.78C317.263 148.15 322.426 160.439 322.426 160.439C339.156 151.971 363.321 120.886 363.321 120.886C364.372 120.937 365.354 121.078 366.268 121.292C368.638 118.607 372.482 114.284 375.064 111.522C375.009 105.997 374.659 100.475 373.855 95.3779C373.855 95.3779 358.723 91.0489 348.27 87.7629C349.487 92.7199 351.512 104.785 345.766 115ZM342.666 177.271C333.786 187.598 321.393 183.053 321.393 183.053C304.457 188.218 281.12 149.905 281.12 149.905C281.12 149.905 283.893 172.755 283.315 188.88C297.905 193.184 314.572 198.257 315.87 199.555C318.134 201.818 316.707 214.128 332.428 236.077C353.127 235.682 367.866 230.455 367.866 230.455L372.409 228.595C372.409 228.595 368.072 182.744 371.582 151.557C371.582 151.557 372.298 147.665 373.079 141.601C364.786 151.354 349.065 169.831 342.666 177.271Z" fill="white"/>
  </mask>
  <g mask="url(#mask8)">
    <path fill-rule="evenodd" clip-rule="evenodd" d="M345.766 115L334.716 105.189L330.998 105.086C330.998 105.086 326.351 110.146 325.111 116.858C325.111 116.858 305.38 113.637 299.911 92.8819C294.468 96.6759 287.297 100.46 281.841 104.447C296.471 109.757 301.192 137.704 309.001 142.78C317.263 148.15 322.426 160.439 322.426 160.439C339.156 151.971 363.321 120.886 363.321 120.886C364.372 120.937 365.354 121.078 366.268 121.292C368.638 118.607 372.482 114.284 375.064 111.522C375.009 105.997 374.659 100.475 373.855 95.3779C373.855 95.3779 358.723 91.0489 348.27 87.7629C349.487 92.7199 351.512 104.785 345.766 115ZM342.666 177.271C333.786 187.598 321.393 183.053 321.393 183.053C304.457 188.218 281.12 149.905 281.12 149.905C281.12 149.905 283.893 172.755 283.315 188.88C297.905 193.184 314.572 198.257 315.87 199.555C318.134 201.818 316.707 214.128 332.428 236.077C353.127 235.682 367.866 230.455 367.866 230.455L372.409 228.595C372.409 228.595 368.072 182.744 371.582 151.557C371.582 151.557 372.298 147.665 373.079 141.601C364.786 151.354 349.065 169.831 342.666 177.271Z" fill="url(#paint7_linear)"/>
  </g>
  <path fill-rule="evenodd" clip-rule="evenodd" d="M361.851 154.798C354.556 163.366 346.731 172.545 342.666 177.271C333.786 187.597 321.393 183.053 321.393 183.053C304.457 188.217 281.121 149.904 281.121 149.904C281.121 149.904 283.035 165.68 283.35 180.265C293.475 184 307.091 187.423 322.86 187.328C349.962 187.166 359.166 164.427 361.851 154.798Z" fill="#E0E3FF"/>
  <path fill-rule="evenodd" clip-rule="evenodd" d="M348.915 87.9657C348.915 87.9657 354.797 107.166 347.052 117.493L340.34 111.761L340.691 110.495L345.766 115C351.512 104.785 349.486 92.7187 348.269 87.7637L348.915 87.9657Z" fill="#E0E3FF"/>
  <path fill-rule="evenodd" clip-rule="evenodd" d="M325.227 116.286L327.381 119.662C327.381 119.662 324.981 141.913 322.321 148.474C321.627 150.183 321.479 153.954 321.628 158.714C322.152 159.784 322.426 160.438 322.426 160.438C326.931 158.159 331.974 154.238 336.94 149.727L334.851 105.308L334.716 105.188L330.998 105.085C330.998 105.085 326.614 109.86 325.227 116.286ZM299.911 92.8815C299.911 92.8815 300.119 115.118 324.18 120.798L324.251 116.678C320.396 115.777 304.697 111.038 299.911 92.8815ZM338.412 181.027C332.725 184.73 326.658 184.241 323.532 183.615C324.179 190.578 324.7 196.451 324.541 198.817L339.656 207.509L338.412 181.027Z" fill="#E0E3FF"/>
  <path fill-rule="evenodd" clip-rule="evenodd" d="M307.586 247.627C305.393 247.753 303.163 247.844 300.897 247.894C301.319 238.632 301.826 232.6 301.826 232.6C303.15 237.313 305.229 242.507 307.586 247.627ZM367.865 230.455C367.865 230.455 353.126 235.682 332.428 236.077C332.484 236.157 332.542 236.237 332.6 236.317C334.359 238.763 335.911 241.175 337.28 243.531C349.849 240.756 360.256 237.09 368.06 233.798C368.007 232.668 367.943 231.552 367.865 230.455Z" fill="#1E2033"/>
  <path fill-rule="evenodd" clip-rule="evenodd" d="M310.552 38.1664C316.335 35.9984 317.677 29.3894 317.677 29.3894C332.548 16.2734 347.47 25.7744 347.47 25.7744L349.122 33.1574L350.463 31.0404C350.463 31.0404 354.801 21.5394 354.698 13.0704C354.594 4.60241 348.088 6.46141 348.088 6.46141C296.351 -6.86059 303.27 15.5484 303.27 15.5484C300.275 9.76541 305.541 3.05341 305.541 3.05341C297.59 7.18441 300.688 17.0974 300.688 17.0974C294.751 14.4144 292.066 19.3714 292.066 19.3714C296.403 17.1504 298.21 19.2164 298.21 19.2164C292.99 28.3194 300.998 40.3344 300.998 40.3344C305.697 40.9534 308.073 51.1784 308.073 51.1784C306.421 43.4334 310.552 38.1664 310.552 38.1664Z" fill="#323447"/>
  <path fill-rule="evenodd" clip-rule="evenodd" d="M310.552 38.1664C313.936 36.8974 315.799 34.1084 316.762 32.0134C312.911 26.8814 306.89 22.2874 297.489 20.6884C293.821 29.5614 300.998 40.3344 300.998 40.3344C305.697 40.9534 308.073 51.1784 308.073 51.1784C306.421 43.4334 310.552 38.1664 310.552 38.1664Z" fill="#1F2136"/>
  <path fill-rule="evenodd" clip-rule="evenodd" d="M317.677 29.389C317.677 29.389 316.335 35.998 310.552 38.166C310.552 38.166 306.421 43.433 308.073 51.179C308.073 51.179 305.697 40.953 300.998 40.335C299.236 40.544 298 41.237 297.205 42.305C299.52 42.888 303.107 44.66 304.557 50.023C304.557 50.023 301.356 56.116 307.448 56.786L308.434 60.472C312.358 71.831 324.956 77.821 326.505 78.957C327.687 79.823 334.272 79.368 338.523 79.103C339.847 79.021 340.946 78.957 341.583 78.957C344.268 78.957 349.327 51.9 349.327 51.9C351.186 51.177 353.149 41.676 353.975 37.029C354.801 32.382 350.463 31.04 350.463 31.04L349.122 33.158L347.47 25.774C347.47 25.774 332.548 16.274 317.677 29.389Z" fill="#FFD4D4"/>
  <path fill-rule="evenodd" clip-rule="evenodd" d="M317.677 29.389C317.677 29.389 316.335 35.998 310.552 38.166C310.552 38.166 306.575 43.238 307.987 50.744L308.073 51.179C308.205 43.728 310.882 39.551 310.882 39.551C321.858 38.558 319.452 30.773 319.452 30.773C331.122 21.891 346.302 26.745 346.302 26.745L349.122 33.158L347.47 25.774C347.47 25.774 332.548 16.274 317.677 29.389Z" fill="#F0ADC1"/>
  <path fill-rule="evenodd" clip-rule="evenodd" d="M373.538 141.122C373.629 170.123 374.369 204.244 377.156 215.614L371.489 216.681C370.447 200.976 369.186 172.851 371.583 151.557C371.583 151.557 372.298 147.665 373.08 141.601L373.538 141.122Z" fill="#E0E3FF"/>
  <path fill-rule="evenodd" clip-rule="evenodd" d="M377.258 228.006C376.527 225.812 376.002 219.419 375.759 215.877L371.488 216.681C371.972 223.98 372.409 228.596 372.409 228.596L371.807 228.842C371.883 228.918 371.962 228.991 372.043 229.065C375.244 231.956 377.258 228.006 377.258 228.006Z" fill="#FFD4D4"/>
  <path fill-rule="evenodd" clip-rule="evenodd" d="M372.043 229.064C371.962 228.991 371.883 228.918 371.807 228.841L367.865 230.455C368.105 233.817 368.219 237.349 368.229 240.978C373.126 235.7 379.168 231.438 379.168 231.438C378.342 227.927 377.155 215.614 377.155 215.614L375.759 215.876C376.002 219.418 376.526 225.811 377.258 228.005C377.258 228.005 375.243 231.956 372.043 229.064Z" fill="#F0ADC1"/>
  <path fill-rule="evenodd" clip-rule="evenodd" d="M204.851 15.452C204.851 15.452 206.296 9.05003 202.372 5.22803C202.372 5.22803 204.231 10.289 202.786 13.593C202.786 13.593 201.856 5.12503 180.272 9.97903C158.69 14.832 154.972 30.22 154.972 30.22C154.972 30.22 152.906 41.166 161.994 40.34C161.994 40.34 170.668 71.528 177.174 84.952C177.174 84.952 183.886 84.952 185.848 84.023L187.5 92.078C187.5 92.078 207.844 87.844 217.861 74.42C217.861 74.42 209.703 55.934 218.584 20.41C218.584 20.41 213.318 14.627 206.399 16.073C206.399 16.073 209.807 13.388 215.796 14.834C215.796 14.834 209.704 11.426 204.851 15.452Z" fill="#999999"/>
  <path fill-rule="evenodd" clip-rule="evenodd" d="M217.861 74.4198C207.844 87.8438 187.5 92.0788 187.5 92.0788C185.577 92.6288 183.705 93.0748 182.046 93.4258L186.984 112.993C186.984 112.993 208.915 102.028 221.359 78.7798C221.752 78.0448 222.135 77.2988 222.508 76.5398L218.688 72.5118L217.861 74.4198Z" fill="white"/>
  <path fill-rule="evenodd" clip-rule="evenodd" d="M169.894 110.721L175.678 112.476L177.398 94.2866C176.442 94.4376 175.884 94.5076 175.884 94.5076L169.894 110.721Z" fill="#E0E3FF"/>
  <path fill-rule="evenodd" clip-rule="evenodd" d="M145.057 148.36L163.078 137.673L164.627 136.64L162.974 129.102L160.496 129.515L141.959 137.723C138.603 144.333 143.663 148.98 143.663 148.98L145.057 148.36Z" fill="white"/>
  <path fill-rule="evenodd" clip-rule="evenodd" d="M206.914 179.809L199.363 176.598L199.289 183.419C201.082 183.404 203.594 183.359 204.59 183.217C206.217 182.984 206.914 179.809 206.914 179.809Z" fill="#F0ADC1"/>
  <path fill-rule="evenodd" clip-rule="evenodd" d="M173.408 175.504L158.689 173.455C158.276 178.928 159.515 181.2 159.515 181.2L171.662 184.719C171.648 180.83 172.414 177.797 173.408 175.504Z" fill="white"/>
  <mask id="mask9" mask-type="alpha" maskUnits="userSpaceOnUse" x="145" y="99" width="76" height="78">
    <path fill-rule="evenodd" clip-rule="evenodd" d="M196.771 106.717C193.63 117.375 185.979 138.152 171.132 151.924C167.105 148.619 163.077 137.673 163.077 137.673L145.057 148.359C145.883 160.236 156.314 173.557 156.314 173.557L158.689 173.455L179.858 176.402C179.858 176.402 193.538 169.059 210.188 149.526C209.016 146.636 208.303 143.845 208.265 142.345C208.256 142.035 208.275 141.747 208.316 141.482C208.805 138.302 212.499 138.214 212.499 138.214C205.537 119.999 215.519 109.907 220.159 106.396C217.731 103.214 213.327 99.74 205.562 99.303C202.463 102.261 199.444 104.729 196.771 106.717Z" fill="white"/>
  </mask>
  <g mask="url(#mask9)">
    <path fill-rule="evenodd" clip-rule="evenodd" d="M196.771 106.717C193.63 117.375 185.979 138.152 171.132 151.924C167.105 148.619 163.077 137.673 163.077 137.673L145.057 148.359C145.883 160.236 156.314 173.557 156.314 173.557L158.689 173.455L179.858 176.402C179.858 176.402 193.538 169.059 210.188 149.526C209.016 146.636 208.303 143.845 208.265 142.345C208.256 142.035 208.275 141.747 208.316 141.482C208.805 138.302 212.499 138.214 212.499 138.214C205.537 119.999 215.519 109.907 220.159 106.396C217.731 103.214 213.327 99.74 205.562 99.303C202.463 102.261 199.444 104.729 196.771 106.717Z" fill="url(#paint8_linear)"/>
  </g>
  <path fill-rule="evenodd" clip-rule="evenodd" d="M156.313 173.557L158.688 173.454L179.857 176.401C179.857 176.401 193.537 169.059 210.188 149.525C209.637 148.167 209.188 146.832 208.862 145.641C193.748 159.458 175.135 172.011 156.313 173.557Z" fill="#E0E3FF"/>
  <path fill-rule="evenodd" clip-rule="evenodd" d="M163.969 139.918C163.407 138.566 163.077 137.672 163.077 137.672L145.056 148.359C145.23 150.841 145.823 153.387 146.652 155.861C151.335 148.166 159.71 142.471 163.969 139.918Z" fill="#E0E3FF"/>
  <mask id="mask10" mask-type="alpha" maskUnits="userSpaceOnUse" x="171" y="170" width="29" height="30">
    <path fill-rule="evenodd" clip-rule="evenodd" d="M179.858 176.402L173.408 175.504C172.414 177.797 171.647 180.83 171.662 184.718L174.488 185.537L182.439 189L186.26 199.017L199.168 194.37L199.288 183.419L199.363 176.598L199.375 175.472L188.869 170.219C183.315 174.546 179.858 176.402 179.858 176.402Z" fill="white"/>
  </mask>
  <g mask="url(#mask10)">
    <path fill-rule="evenodd" clip-rule="evenodd" d="M179.858 176.402L173.408 175.504C172.414 177.797 171.647 180.83 171.662 184.718L174.488 185.537L182.439 189L186.26 199.017L199.168 194.37L199.288 183.419L199.363 176.598L199.375 175.472L188.869 170.219C183.315 174.546 179.858 176.402 179.858 176.402Z" fill="url(#paint9_linear)"/>
  </g>
  <path fill-rule="evenodd" clip-rule="evenodd" d="M182.169 188.883L182.439 189L186.26 199.017L199.168 194.37L199.288 183.419L199.362 176.598L199.375 175.472L182.169 188.883Z" fill="#FFD4D4"/>
  <mask id="mask11" mask-type="alpha" maskUnits="userSpaceOnUse" x="171" y="78" width="64" height="215">
    <path fill-rule="evenodd" clip-rule="evenodd" d="M205.562 99.3031C213.326 99.7401 217.731 103.214 220.159 106.396C221.437 105.428 222.31 104.96 222.31 104.96C226.777 103.616 230.738 102.717 234.253 102.174C230.196 91.6351 224.827 83.4491 221.359 78.7791C216.842 87.2181 211.075 94.0381 205.562 99.3031ZM177.398 94.2871L175.677 112.475C174.438 131.581 171.132 151.924 171.132 151.924C185.979 138.152 193.63 117.375 196.771 106.717C191.097 110.936 186.984 112.993 186.984 112.993L182.047 93.4261C180.132 93.8331 178.501 94.1141 177.398 94.2871ZM188.869 170.219L199.375 175.472L199.363 176.598L206.914 179.809C206.914 179.809 206.217 182.984 204.59 183.216C203.593 183.359 201.082 183.404 199.288 183.419L199.168 194.37L186.26 199.017L182.439 189L174.488 185.537L174.452 209.191C174.482 208.9 174.496 208.746 174.496 208.746C176.451 206.139 206.818 192.733 220.563 186.176C220.618 185.597 220.684 185.007 220.761 184.409L227.772 181.199C228.092 179.516 228.078 176.819 227.929 174.05C221.153 168.056 219.005 159.281 219.005 159.281C215.441 159.539 212.162 154.392 210.188 149.526C201.908 159.239 194.362 165.938 188.869 170.219ZM187.714 280.104C187.714 280.104 191.122 281.653 196.699 286.816C199.754 289.646 204.235 291.701 207.662 292.979C209.556 272.748 202.998 240.656 202.998 240.656C201.965 257.178 187.714 280.104 187.714 280.104Z" fill="white"/>
  </mask>
  <g mask="url(#mask11)">
    <path fill-rule="evenodd" clip-rule="evenodd" d="M205.562 99.3031C213.326 99.7401 217.731 103.214 220.159 106.396C221.437 105.428 222.31 104.96 222.31 104.96C226.777 103.616 230.738 102.717 234.253 102.174C230.196 91.6351 224.827 83.4491 221.359 78.7791C216.842 87.2181 211.075 94.0381 205.562 99.3031ZM177.398 94.2871L175.677 112.475C174.438 131.581 171.132 151.924 171.132 151.924C185.979 138.152 193.63 117.375 196.771 106.717C191.097 110.936 186.984 112.993 186.984 112.993L182.047 93.4261C180.132 93.8331 178.501 94.1141 177.398 94.2871ZM188.869 170.219L199.375 175.472L199.363 176.598L206.914 179.809C206.914 179.809 206.217 182.984 204.59 183.216C203.593 183.359 201.082 183.404 199.288 183.419L199.168 194.37L186.26 199.017L182.439 189L174.488 185.537L174.452 209.191C174.482 208.9 174.496 208.746 174.496 208.746C176.451 206.139 206.818 192.733 220.563 186.176C220.618 185.597 220.684 185.007 220.761 184.409L227.772 181.199C228.092 179.516 228.078 176.819 227.929 174.05C221.153 168.056 219.005 159.281 219.005 159.281C215.441 159.539 212.162 154.392 210.188 149.526C201.908 159.239 194.362 165.938 188.869 170.219ZM187.714 280.104C187.714 280.104 191.122 281.653 196.699 286.816C199.754 289.646 204.235 291.701 207.662 292.979C209.556 272.748 202.998 240.656 202.998 240.656C201.965 257.178 187.714 280.104 187.714 280.104Z" fill="url(#paint10_linear)"/>
  </g>
  <path fill-rule="evenodd" clip-rule="evenodd" d="M181.93 188.778C180.284 192.017 177.888 194.659 174.472 196.173L174.489 185.537L181.93 188.778ZM171.133 151.924C175.798 147.596 179.752 142.578 183.079 137.399C183.595 127.507 185.253 118.389 186.719 111.937L183.792 100.342L177.065 97.8102L175.678 112.475C174.438 131.58 171.133 151.924 171.133 151.924Z" fill="#E0E3FF"/>
  <path fill-rule="evenodd" clip-rule="evenodd" d="M221.756 79.3182C220.46 83.5412 217.292 91.9532 210.766 100.145C209.226 99.7092 207.498 99.4122 205.562 99.3022C211.076 94.0382 216.842 87.2182 221.359 78.7792C221.488 78.9542 221.621 79.1342 221.756 79.3182ZM194.357 114.096C195.352 111.329 196.15 108.825 196.772 106.717C191.097 110.936 186.985 112.993 186.985 112.993L183.481 99.1082L186.132 117.776C189.1 116.732 191.834 115.487 194.357 114.096Z" fill="#E0E3FF"/>
  <path fill-rule="evenodd" clip-rule="evenodd" d="M155.435 98.0175L148.332 69.4405C148.332 69.4405 154.322 62.2115 155.974 60.6625C157.626 59.1135 156.181 56.9445 156.181 56.9445L155.97 57.0325L138.043 64.4875C133.679 75.4665 139.118 93.1635 139.118 93.1635L141.958 137.723L160.496 129.514C156.365 114.953 155.435 98.0175 155.435 98.0175Z" fill="#FFCCC8"/>
  <path fill-rule="evenodd" clip-rule="evenodd" d="M141.369 130.851L141.959 137.723L160.496 129.514C160.241 128.615 159.998 127.706 159.766 126.793L141.369 130.851Z" fill="#FFCCC8"/>
  <mask id="mask12" mask-type="alpha" maskUnits="userSpaceOnUse" x="138" y="47" width="25" height="18">
    <path fill-rule="evenodd" clip-rule="evenodd" d="M140.978 59.807C139.702 61.125 138.746 62.719 138.044 64.487L155.971 57.032L161.477 51.958C163.181 49.068 160.547 47.054 160.547 47.054L140.978 59.807Z" fill="white"/>
  </mask>
  <g mask="url(#mask12)">
    <path fill-rule="evenodd" clip-rule="evenodd" d="M140.978 59.807C139.702 61.125 138.746 62.719 138.044 64.487L155.971 57.032L161.477 51.958C163.181 49.068 160.547 47.054 160.547 47.054L140.978 59.807Z" fill="#FFCCC8"/>
  </g>
  <path fill-rule="evenodd" clip-rule="evenodd" d="M208.975 55.7279C206.179 60.4959 199.863 59.8889 199.863 59.8889C200.792 82.1949 185.849 84.0229 185.849 84.0229L187.501 92.0789C187.501 92.0789 207.845 87.8439 217.862 74.4189C217.862 74.4189 216.16 70.5619 215.157 62.9869C211.883 62.0539 210.027 58.9019 208.975 55.7279Z" fill="#F0ADC1"/>
  <path fill-rule="evenodd" clip-rule="evenodd" d="M208.124 40.1644C211.059 48.1174 210.644 52.8814 208.975 55.7274C210.026 58.9014 211.882 62.0544 215.157 62.9874C213.964 53.9774 213.76 39.7074 218.584 20.4104C218.584 20.4104 213.318 14.6274 206.398 16.0734C206.398 16.0734 209.807 13.3874 215.796 14.8334C215.796 14.8334 209.703 11.4264 204.851 15.4524C204.851 15.4524 206.296 9.04939 202.373 5.22839C202.373 5.22839 204.231 10.2894 202.785 13.5934C202.785 13.5934 201.856 5.12539 180.272 9.97839C158.69 14.8324 154.972 30.2194 154.972 30.2194C154.972 30.2194 152.906 41.1664 161.994 40.3404L186.644 36.9634C188.399 49.3554 197.177 49.3554 197.177 49.3554L196.558 44.3984C199.966 32.2124 208.124 40.1644 208.124 40.1644Z" fill="#323447"/>
  <path fill-rule="evenodd" clip-rule="evenodd" d="M208.124 40.1644C211.059 48.1174 210.644 52.8814 208.975 55.7274C210.026 58.9014 211.882 62.0544 215.157 62.9874C214.212 55.8534 213.888 45.4224 216.188 31.8104C199.684 24.6524 186.644 36.9634 186.644 36.9634C188.399 49.3554 197.177 49.3554 197.177 49.3554L196.558 44.3984C199.966 32.2124 208.124 40.1644 208.124 40.1644Z" fill="#1F2136"/>
  <path fill-rule="evenodd" clip-rule="evenodd" d="M208.975 55.7279C210.644 52.8809 211.059 48.1179 208.124 40.1649C208.124 40.1649 199.966 32.2129 196.558 44.3979L197.178 49.3549C197.178 49.3549 188.4 49.3549 186.644 36.9629L161.994 40.3399C161.994 40.3399 170.668 71.5279 177.174 84.9519C177.174 84.9519 183.887 84.9529 185.849 84.0229C185.849 84.0229 200.793 82.1949 199.863 59.8889C199.863 59.8889 206.179 60.4959 208.975 55.7279Z" fill="#FFCCC8"/>
  <path fill-rule="evenodd" clip-rule="evenodd" d="M197.178 49.3553C197.178 49.3553 188.4 49.3553 186.644 36.9633L161.994 40.3403C161.994 40.3403 162.306 41.4623 162.856 43.3693L184.17 40.2203C184.17 40.2203 184.222 50.7883 197.178 49.3553Z" fill="#F0ADC1"/>
  <mask id="mask13" mask-type="alpha" maskUnits="userSpaceOnUse" x="199" y="41" width="12" height="19">
    <path fill-rule="evenodd" clip-rule="evenodd" d="M203.27 41.9709C199.759 43.2109 200.534 48.9939 200.534 48.9939C200.534 48.9939 203.787 53.6419 199.863 54.7769V59.8889C199.863 59.8889 206.178 60.4959 208.975 55.7279C210.426 53.2519 210.929 49.3239 209.103 43.1089C207.955 42.4219 206.392 41.7159 204.817 41.7159C204.298 41.7159 203.778 41.7919 203.27 41.9709Z" fill="white"/>
  </mask>
  <g mask="url(#mask13)">
    <path fill-rule="evenodd" clip-rule="evenodd" d="M203.27 41.9709C199.759 43.2109 200.534 48.9939 200.534 48.9939C200.534 48.9939 203.787 53.6419 199.863 54.7769V59.8889C199.863 59.8889 206.178 60.4959 208.975 55.7279C210.426 53.2519 210.929 49.3239 209.103 43.1089C207.955 42.4219 206.392 41.7159 204.817 41.7159C204.298 41.7159 203.778 41.7919 203.27 41.9709Z" fill="url(#paint11_linear)"/>
  </g>
  <path fill-rule="evenodd" clip-rule="evenodd" d="M148.333 69.4403L153.265 89.2793C153.934 88.9282 154.812 88.2882 155.116 87.2533C155.632 85.4983 152.741 69.5943 152.741 69.5943L159.35 58.7523L158.765 54.4583L155.971 57.0323L156.182 56.9443C156.182 56.9443 157.627 59.1133 155.975 60.6623C154.323 62.2113 148.333 69.4403 148.333 69.4403Z" fill="#F0ADC1"/>
  <path fill-rule="evenodd" clip-rule="evenodd" d="M202.998 240.656C201.965 257.178 187.714 280.104 187.714 280.104C187.714 280.104 191.123 281.653 196.699 286.816C199.754 289.645 204.235 291.7 207.663 292.978C209.556 272.748 202.998 240.656 202.998 240.656Z" fill="#323447"/>
  <path fill-rule="evenodd" clip-rule="evenodd" d="M327.589 184.047C328.301 189.892 328.698 195.109 328.09 198.422L339.655 207.51L349.363 197.39C349.363 197.39 347.267 186.296 345.357 174.135C344.345 175.318 343.438 176.375 342.666 177.271C337.825 182.901 331.941 184.11 327.589 184.047ZM330.155 120.041C330.155 120.041 327.971 141.811 325.198 151.125C324.61 153.101 324.486 155.915 324.638 159.215C330.201 155.897 336.392 150.484 342.16 144.757C341.681 131.824 341.515 118.905 341.515 118.905C333.77 115.394 330.155 120.041 330.155 120.041Z" fill="#464855"/>
  <path fill-rule="evenodd" clip-rule="evenodd" d="M330.156 120.041C330.156 120.041 330.092 120.68 329.971 121.786C331.536 120.345 334.998 118.317 341.523 119.43L341.515 118.905C333.77 115.394 330.156 120.041 330.156 120.041Z" fill="#6B6F82"/>
  <path fill-rule="evenodd" clip-rule="evenodd" d="M330.156 120.041C330.156 120.041 333.77 115.394 341.515 118.905L342.96 112.508L334.717 105.189L330.999 105.086C330.999 105.086 328.033 108.314 326.208 113.036L330.156 120.041Z" fill="#464855"/>
  <path fill-rule="evenodd" clip-rule="evenodd" d="M342.169 116.007L342.959 112.508L334.716 105.189L332.698 105.133C337.439 107.861 340.525 112.741 342.169 116.007Z" fill="#6B6F82"/>
  <path fill-rule="evenodd" clip-rule="evenodd" d="M185.38 106.637L182.046 93.4266C180.132 93.8326 178.5 94.1136 177.398 94.2866L175.713 112.088H183.514L185.38 106.637Z" fill="#464855"/>
  <path fill-rule="evenodd" clip-rule="evenodd" d="M174.482 190.165C176.615 188.412 177.138 186.691 177.138 186.691L174.489 185.537L171.663 184.719L169.091 183.974C168.19 185.861 167.198 186.647 167.198 186.647C165.442 191.501 161.932 193.05 161.932 193.05H168.438C171.236 192.341 173.166 191.247 174.482 190.165ZM171.133 151.924C174.268 149.016 177.082 145.796 179.6 142.425C181.247 126.333 183.515 112.088 183.515 112.088H175.714L175.678 112.476C174.439 131.581 171.133 151.924 171.133 151.924Z" fill="#464855"/>
  <path fill-rule="evenodd" clip-rule="evenodd" d="M183.078 114.937C183.35 113.119 183.514 112.088 183.514 112.088H175.713L175.677 112.476L175.629 113.192C177.67 113.405 180.689 113.881 183.078 114.937Z" fill="#6B6F82"/>
  <path fill-rule="evenodd" clip-rule="evenodd" d="M249.281 306.133C249.209 306.083 249.138 306.034 249.067 305.984C249.138 306.034 249.209 306.083 249.281 306.133ZM249.287 306.137C249.209 306.085 249.131 306.031 249.053 305.978L249.287 306.137ZM249.786 306.463C249.721 306.422 249.656 306.38 249.591 306.338C249.656 306.38 249.721 306.422 249.786 306.463ZM250.03 306.615C249.953 306.569 249.877 306.522 249.801 306.473C249.877 306.522 249.953 306.57 250.03 306.615ZM250.272 306.763C250.196 306.718 250.12 306.671 250.044 306.624C250.12 306.671 250.196 306.718 250.272 306.763ZM250.275 306.765C250.196 306.719 250.116 306.673 250.037 306.625L250.275 306.765ZM250.514 306.901C250.436 306.857 250.357 306.812 250.278 306.767C250.357 306.812 250.436 306.857 250.514 306.901ZM250.516 306.901C250.441 306.861 250.364 306.82 250.288 306.778L250.516 306.901ZM250.76 307.029C250.686 306.99 250.611 306.951 250.535 306.911C250.611 306.951 250.686 306.99 250.76 307.029ZM265.939 296.183L252.435 309.298H250.534C250.745 308.946 250.833 308.55 250.859 308.188L265.939 296.183Z" fill="#E0E3FF"/>
  <path fill-rule="evenodd" clip-rule="evenodd" d="M381.465 180.891C381.465 180.891 381.799 218.537 319.091 226.329C319.091 226.329 383.53 223.851 381.465 180.891Z" fill="white"/>
  <path fill-rule="evenodd" clip-rule="evenodd" d="M342.637 267.018C342.637 267.018 364.53 269.496 377.128 249.875C377.128 249.875 372.791 270.735 342.637 267.018Z" fill="white"/>
  <path fill-rule="evenodd" clip-rule="evenodd" d="M162.123 186.056C162.123 186.056 161.298 208.27 192.897 207.115C192.897 207.115 157.992 212.182 162.123 186.056Z" fill="white"/>
  <path fill-rule="evenodd" clip-rule="evenodd" d="M162.33 216.829C162.33 216.829 152.416 223.994 155.308 230.817C158.199 237.641 178.026 236.618 178.026 236.618C178.026 236.618 156.65 239.263 153.139 231.756C149.628 224.25 162.33 216.829 162.33 216.829Z" fill="white"/>
  <path fill-rule="evenodd" clip-rule="evenodd" d="M219.278 316.533H284.848C284.848 316.533 293.32 322.277 293.006 330.322C292.796 335.685 292.775 347.556 292.801 357.533C272.74 355.357 251.724 353.347 229.708 352.171V331.756C229.708 331.756 229.915 321.368 219.278 316.533Z" fill="white"/>
  <path fill-rule="evenodd" clip-rule="evenodd" d="M219.278 316.533H238.463L259.035 321.159L224.265 320.304C222.947 318.899 221.311 317.599 219.278 316.533Z" fill="#E0E3FF"/>
  <path fill-rule="evenodd" clip-rule="evenodd" d="M222.065 282.639L223.322 283.874L225.331 281.928L232.468 290.765L231.904 291.329L225.314 283.912L224.346 284.88L257.487 317.441L259.036 321.159L255.111 320.59L219.277 285.221L222.065 282.639Z" fill="#323447"/>
  <path fill-rule="evenodd" clip-rule="evenodd" d="M215.493 317.675C224.185 319.443 228.961 318.902 229.9 319.111C231.294 319.42 232.998 316.993 232.998 316.993C236.509 318.49 239.865 314.463 239.865 314.463C244.926 316.58 245.803 311.056 245.803 311.056L236.543 304.565C239.383 306.5 244.894 310.021 247.765 310.281C251.741 310.643 250.76 307.029 250.76 307.029C244.667 303.93 236.509 294.12 236.509 294.12L218.85 296.03C214.756 301.66 213.076 311.209 215.493 317.675ZM236.543 304.565C235.451 303.821 234.753 303.311 234.753 303.311L236.543 304.565Z" fill="#FFD4D4"/>
  <path fill-rule="evenodd" clip-rule="evenodd" d="M236.509 294.119L226.849 319.022C228.504 319.064 229.519 319.025 229.9 319.11C231.295 319.42 232.998 316.993 232.998 316.993C236.509 318.49 239.865 314.463 239.865 314.463C244.926 316.58 245.803 311.056 245.803 311.056L236.544 304.564C239.384 306.5 244.894 310.02 247.765 310.281C251.741 310.642 250.76 307.028 250.76 307.028C244.667 303.93 236.509 294.12 236.509 294.12V294.119ZM236.544 304.564C235.451 303.82 234.754 303.31 234.754 303.31L236.544 304.564Z" fill="#FFE3E3"/>
  <path fill-rule="evenodd" clip-rule="evenodd" d="M247.765 310.281C248.727 310.368 249.399 310.223 249.864 309.953L236.785 302.503L233.895 300.856L233.348 302.267L234.753 303.31L236.543 304.564C238.095 305.623 240.446 307.154 242.727 308.368C244.619 309.374 246.464 310.163 247.765 310.281Z" fill="#F0ADC1"/>
  <path fill-rule="evenodd" clip-rule="evenodd" d="M440.478 233.902H548.55C550.76 233.902 551.572 235.693 550.363 237.903L512.038 307.987C510.829 310.197 508.058 311.988 505.848 311.988H397.777C395.567 311.988 394.755 310.197 395.963 307.987L434.29 237.903C435.498 235.693 438.269 233.902 440.478 233.902Z" fill="#C0C4D2"/>
  <path fill-rule="evenodd" clip-rule="evenodd" d="M349.052 311.99H507.059C509.663 311.99 511.775 313.446 511.775 315.243C511.775 317.039 509.663 318.496 507.059 318.496H349.052C346.448 318.496 344.336 317.039 344.336 315.243C344.336 313.446 346.448 311.99 349.052 311.99Z" fill="#464855"/>
  <path fill-rule="evenodd" clip-rule="evenodd" d="M347.163 312.868H393.453C394.216 312.868 394.834 313.93 394.834 315.243C394.834 316.555 394.216 317.618 393.453 317.618H347.163C346.4 317.618 345.781 316.555 345.781 315.243C345.781 313.93 346.4 312.868 347.163 312.868Z" fill="#1A1B22"/>
  <path fill-rule="evenodd" clip-rule="evenodd" d="M510.75 311.601C510.75 311.601 514.52 314.957 511.215 318.003C511.215 318.003 516.068 314.932 510.75 311.601Z" fill="white"/>
  <path fill-rule="evenodd" clip-rule="evenodd" d="M475.461 264.374C480.194 264.374 483.004 268.212 481.735 272.945C480.467 277.68 475.601 281.517 470.867 281.517C466.134 281.517 463.324 277.68 464.593 272.945C465.861 268.212 470.727 264.374 475.461 264.374Z" fill="#F9FAFD"/>
  <path fill-rule="evenodd" clip-rule="evenodd" d="M437.595 237.905C438.798 235.704 441.583 233.904 443.784 233.904H440.479C438.279 233.904 435.494 235.704 434.29 237.905L395.964 307.989C394.761 310.189 395.577 311.99 397.778 311.99H401.082C398.881 311.99 398.066 310.189 399.269 307.989L437.595 237.905Z" fill="#A7ABBE"/>
  <path fill-rule="evenodd" clip-rule="evenodd" d="M153.575 287.023V314.905L43.6973 314.957L43.7073 312.169L145.107 309.122L145.313 292.805L43.7333 296.409V293.425L153.575 287.023Z" fill="#898EA3"/>
  <path fill-rule="evenodd" clip-rule="evenodd" d="M49.377 296.209V311.999L145.107 309.122L145.314 292.806L49.377 296.209Z" fill="white"/>
  <path fill-rule="evenodd" clip-rule="evenodd" d="M49.377 296.209V300.004L140.873 297.349V309.25L145.107 309.122L145.314 292.806L49.377 296.209Z" fill="#E0E3FF"/>
  <path fill-rule="evenodd" clip-rule="evenodd" d="M50.4346 293.035V265.152L160.313 265.1L160.303 267.888L58.9026 270.935L58.6956 287.252L160.276 283.649V286.632L50.4346 293.035Z" fill="#6B6F82"/>
  <path fill-rule="evenodd" clip-rule="evenodd" d="M154.633 283.848V268.058L58.9028 270.935L58.6958 287.251L154.633 283.848Z" fill="white"/>
  <path fill-rule="evenodd" clip-rule="evenodd" d="M154.633 270.893V268.058L58.9028 270.935L58.6958 287.251L62.3858 287.121V273.185L154.633 270.893Z" fill="#E0E3FF"/>
  <path fill-rule="evenodd" clip-rule="evenodd" d="M83.5405 286.371L107.968 285.504C104.087 287.572 101.957 290.031 101.957 290.031L84.7705 291.033C84.6905 289.095 84.1735 287.553 83.5405 286.371Z" fill="#D16B6B"/>
  <path fill-rule="evenodd" clip-rule="evenodd" d="M83.5403 286.371L107.968 285.504C109 284.954 110.156 284.431 111.43 283.99L86.6453 284.094L80.8633 283.267C80.8633 283.267 82.3923 284.228 83.5403 286.371Z" fill="white"/>
  <path fill-rule="evenodd" clip-rule="evenodd" d="M83.5405 286.371L107.968 285.504C104.087 287.572 101.957 290.031 101.957 290.031L84.7705 291.033C84.6905 289.095 84.1735 287.553 83.5405 286.371Z" fill="#C44848"/>
  <path fill-rule="evenodd" clip-rule="evenodd" d="M83.5403 286.371L107.968 285.504C109 284.954 110.156 284.431 111.43 283.99L86.6453 284.094L80.8633 283.267C80.8633 283.267 82.3923 284.228 83.5403 286.371Z" fill="#E0E3FF"/>
  <path fill-rule="evenodd" clip-rule="evenodd" d="M148.845 246.944V265.122L38.9668 265.155L38.9768 263.339L140.377 261.351L140.584 250.715L39.0038 253.063V251.119L148.845 246.944Z" fill="#898EA3"/>
  <path fill-rule="evenodd" clip-rule="evenodd" d="M109.2 261.963L102.409 262.096H102.403L100.973 262.124L109.2 261.963ZM44.646 252.934V263.228L100.973 262.124L101.33 262.716L101.332 262.718L101.987 263.805L109.2 261.963L140.377 261.352L140.583 250.715L44.646 252.934Z" fill="white"/>
  <path fill-rule="evenodd" clip-rule="evenodd" d="M44.6465 252.933V255.407L136.142 253.676V261.434L140.376 261.351L140.583 250.714L44.6465 252.933Z" fill="#E0E3FF"/>
  <path fill-rule="evenodd" clip-rule="evenodd" d="M45.7036 250.864V232.686L155.582 232.653L155.572 234.47L54.1716 236.457L53.9656 247.093L155.546 244.745V246.69L45.7036 250.864Z" fill="#6B6F82"/>
  <path fill-rule="evenodd" clip-rule="evenodd" d="M149.902 244.876V234.582L54.1723 236.457L53.9653 247.094L149.902 244.876Z" fill="white"/>
  <path fill-rule="evenodd" clip-rule="evenodd" d="M149.902 236.43V234.582L54.1723 236.457L53.9653 247.094L57.6563 247.009V237.924L149.902 236.43Z" fill="#E0E3FF"/>
  <path fill-rule="evenodd" clip-rule="evenodd" d="M53.7505 230.326H136.895C136.895 230.326 79.1555 227.434 53.7505 230.326Z" fill="white"/>
  <path fill-rule="evenodd" clip-rule="evenodd" d="M117.881 261.793L110.431 265.134L100.261 265.137L99.3945 262.154L100.974 262.124L101.987 263.805L109.201 261.963L114.634 261.856L117.881 261.793Z" fill="#DB974F"/>
  <path fill-rule="evenodd" clip-rule="evenodd" d="M99.394 262.154L100.974 262.124L99.394 262.154Z" fill="#DB974F"/>
  <path fill-rule="evenodd" clip-rule="evenodd" d="M99.394 262.154L99.705 262.148L100.974 262.124L99.394 262.154Z" fill="#E0E3FF"/>
  <path fill-rule="evenodd" clip-rule="evenodd" d="M99.3942 262.154L97.9082 257.04L100.974 262.124L99.3942 262.154ZM128.476 257.04L117.88 261.793L109.2 261.963L128.476 257.04Z" fill="#E0E3FF"/>
  <path fill-rule="evenodd" clip-rule="evenodd" d="M80.8633 283.267C80.8633 283.267 89.9503 286.767 91.8093 293.639C91.8093 293.639 102.549 284.816 111.43 283.99L80.8633 283.267Z" fill="white"/>
  <defs>
    <linearGradient id="paint0_linear" x1="0.000488281" y1="0.80835" x2="0.000488281" y2="374.949" gradientUnits="userSpaceOnUse">
      <stop stop-color="#B384FF"/>
      <stop offset="1" stop-color="#7C4DFF"/>
    </linearGradient>
    <linearGradient id="paint1_linear" x1="265.108" y1="138.518" x2="265.109" y2="155.454" gradientUnits="userSpaceOnUse">
      <stop stop-color="#EFACC1"/>
      <stop offset="1" stop-color="#FFD4D4"/>
    </linearGradient>
    <linearGradient id="paint2_linear" x1="195.069" y1="326.172" x2="225.223" y2="326.171" gradientUnits="userSpaceOnUse">
      <stop stop-color="#EFACC1"/>
      <stop offset="1" stop-color="#FFD4D4"/>
    </linearGradient>
    <linearGradient id="paint3_linear" x1="208.145" y1="142.752" x2="208.147" y2="161.031" gradientUnits="userSpaceOnUse">
      <stop stop-color="#EFACC1"/>
      <stop offset="1" stop-color="#FFD4D4"/>
    </linearGradient>
    <linearGradient id="paint4_linear" x1="295.667" y1="41.817" x2="295.667" y2="61.5468" gradientUnits="userSpaceOnUse">
      <stop stop-color="#EFACC1"/>
      <stop offset="1" stop-color="#FFD4D4"/>
    </linearGradient>
    <linearGradient id="paint5_linear" x1="282.728" y1="144.127" x2="282.728" y2="208.482" gradientUnits="userSpaceOnUse">
      <stop stop-color="white"/>
      <stop offset="1" stop-color="#DFE2FF"/>
    </linearGradient>
    <linearGradient id="paint6_linear" x1="394.654" y1="86.5939" x2="394.655" y2="136.21" gradientUnits="userSpaceOnUse">
      <stop stop-color="white"/>
      <stop offset="1" stop-color="white"/>
    </linearGradient>
    <linearGradient id="paint7_linear" x1="311.634" y1="59.8987" x2="205.959" y2="145.221" gradientUnits="userSpaceOnUse">
      <stop stop-color="white"/>
      <stop offset="1" stop-color="#DFE2FF"/>
    </linearGradient>
    <linearGradient id="paint8_linear" x1="158.765" y1="131.508" x2="158.765" y2="180.461" gradientUnits="userSpaceOnUse">
      <stop stop-color="white"/>
      <stop offset="1" stop-color="#DFE2FF"/>
    </linearGradient>
    <linearGradient id="paint9_linear" x1="205.568" y1="178.449" x2="181.489" y2="163.361" gradientUnits="userSpaceOnUse">
      <stop stop-color="#FFD4D4"/>
      <stop offset="1" stop-color="#EFACC1"/>
    </linearGradient>
    <linearGradient id="paint10_linear" x1="152.187" y1="183.897" x2="216.711" y2="195.306" gradientUnits="userSpaceOnUse">
      <stop stop-color="white"/>
      <stop offset="1" stop-color="#DFE2FF"/>
    </linearGradient>
    <linearGradient id="paint11_linear" x1="199.494" y1="38.6003" x2="199.495" y2="58.0863" gradientUnits="userSpaceOnUse">
      <stop stop-color="#EFACC1"/>
      <stop offset="1" stop-color="#FFD4D4"/>
    </linearGradient>
  </defs>
</svg>
